0
.25000
0
.75000
0
0
.25000
0
.25000
0
.25000
0
.25000
.75000
.75000
0
.25000
.25000
0
0
.25000
0
0
.25000
.25000
0
1.25000
.75000
0
.25000
0
.25000
0
1.75000
.25000
1.75000
.25000
11.25000
0
.25000
.75000
.25000
1.25000
.25000
.25000
0
6.25000
.25000
0
.75000
0
.25000
0
0
0
0
2.25000
1.25000
0
.25000
.25000
0
0
.25000
0
.25000
2.25000
.25000
.25000
0
2.25000
0
.25000
.25000
.25000
.25000
.25000
.25000
.25000
.25000
.25000
0
0
0
22.75000
.75000
0
1.25000
4.25000
.75000
.25000
0
0
0
0
0
3.25000
0
.25000
0
1.25000
0
0
.75000
0
.25000
0
0
2.25000
.25000
.25000
0
.75000
0
0
.25000
.25000
0
4.75000
0
0
2.25000
0
.25000
0
0
0
0
.25000
0
2.75000
0
.25000
0
.75000
.25000
.75000
0
0
.25000
0
.75000
0
.25000
0
.25000
.75000
0
.25000
0
.25000
0
0
0
0
0
0
.25000
.25000
0
.75000
0
0
.25000
.25000
1.25000
0
0
12.25000
1.25000
.25000
0
0
0
.25000
.75000
.25000
.25000
.25000
0
.25000
0
0
0
0
0
1.25000
.25000
0
.25000
0
0
0
0
0
.75000
0
0
.75000
0
.75000
0
2.75000
.25000
0
.75000
0
.25000
0
0
.25000
0
0
0
.25000
0
.25000
.25000
0
0
0
0
.75000
2.25000
0
0
0
.25000
.25000
.25000
0
0
.25000
7.25000
.25000
1.25000
.25000
0
0
.25000
1.25000
0
.25000
1.25000
.25000
1.25000
0
0
.25000
0
.75000
.25000
0
0
0
.75000
0
.25000
.75000
.25000
0
0
0
0
.25000
.25000
0
.75000
.25000
0
0
1.25000
0
.25000
.25000
0
0
.25000
0
0
.75000
1.25000
.75000
0
.25000
0
.25000
0
.25000
1.25000
0
.25000
.25000
.25000
1.25000
2.25000
.75000
0
0
0
.25000
0
0
0
0
3.75000
0
.25000
.75000
0
0
0
0
.75000
6.25000
.25000
.25000
0
.25000
0
.75000
1.25000
0
0
0
1.25000
.75000
2.75000
.75000
0
0
0
.25000
.75000
0
0
0
3.75000
0
0
0
0
0
0
.25000
0
.25000
4.25000
0
0
1.25000
0
0
.25000
2.75000
0
0
0
.75000
.25000
0
.25000
1.75000
.75000
0
0
14.25000
0
0
0
0
.25000
.25000
1.75000
.75000
0
.25000
0
.25000
0
.25000
.25000
1.25000
0
0
0
.25000
0
0
0
.25000
0
.25000
0
.25000
0
1.75000
.75000
0
0
.25000
.25000
.75000
.25000
.75000
.25000
0
.25000
0
.25000
.25000
0
0
.25000
0
0
0
1.75000
0
0
0
1.25000
.25000
0
.75000
.25000
0
0
.25000
0
.75000
0
0
0
0
0
.25000
.25000
.25000
1.25000
1.25000
.75000
.25000
2.25000
.25000
0
0
1.75000
.75000
0
0
3.75000
.25000
.75000
.25000
.75000
0
0
.75000
.25000
.25000
0
1.25000
.75000
0
.25000
0
0
.25000
.25000
.25000
0
0
0
0
.25000
.25000
0
1.25000
.25000
0
.25000
.25000
6.75000
1.25000
4.25000
.25000
.25000
0
0
.25000
0
0
0
1.75000
0
0
.25000
2.75000
0
.75000
.25000
.25000
0
0
0
1.25000
0
0
0
.75000
0
.75000
0
.25000
0
.25000
0
.25000
0
0
0
3.75000
.25000
.25000
1.25000
.25000
.25000
0
2.25000
1.75000
.25000
.75000
.75000
.25000
0
0
.75000
.25000
.25000
.25000
.75000
9.75000
0
.25000
0
0
0
0
0
2.75000
.25000
.75000
3.25000
0
.75000
9.75000
0
.25000
0
.25000
0
0
.25000
.75000
.25000
0
0
.25000
0
.25000
.75000
.25000
.25000
0
.25000
.75000
10.25000
0
.25000
.25000
.75000
0
0
0
.25000
0
.25000
.75000
0
1.25000
.25000
0
.25000
.75000
0
2.75000
.75000
.25000
0
.75000
2.25000
.25000
.25000
.25000
0
.25000
1.25000
0
.75000
0
.75000
0
0
0
.25000
.25000
.25000
1.75000
.25000
.25000
0
1.75000
.25000
0
.25000
0
0
.25000
8.75000
0
0
0
.25000
.25000
.75000
.25000
0
3.25000
0
0
.75000
0
0
0
1.25000
.75000
.25000
.75000
1.75000
1.75000
0
.25000
.25000
0
.75000
.75000
0
.25000
0
.25000
0
0
0
0
0
.75000
1.75000
0
.25000
1.25000
0
.25000
6.25000
0
.75000
0
1.25000
0
2.25000
.25000
21.25000
.25000
0
.25000
0
2.25000
0
.25000
0
1.25000
0
0
.25000
.75000
1.25000
0
.25000
0
.25000
.25000
0
0
0
0
.25000
.25000
0
0
.75000
0
3.75000
6.25000
.25000
.25000
.75000
.25000
0
0
1.75000
.25000
0
0
0
0
1.25000
3.75000
0
.25000
0
0
0
0
.25000
.25000
0
0
0
0
.75000
.75000
0
.25000
.75000
0
.25000
.25000
0
0
0
.25000
.75000
3.75000
0
0
8.75000
0
0
.25000
0
0
1.75000
0
0
.25000
0
.25000
0
0
.25000
4.25000
.25000
0
.75000
.25000
0
0
8.25000
.25000
0
0
.25000
0
0
0
0
0
.25000
.25000
0
0
0
0
0
.25000
3.75000
1.75000
1.75000
.25000
26.25000
.75000
0
0
.25000
.75000
.75000
0
5.25000
.25000
0
.25000
1.25000
0
0
1.25000
.75000
1.75000
7.75000
0
0
1.75000
0
0
0
.25000
0
0
0
0
0
.25000
.25000
0
.25000
0
0
.25000
0
0
4.75000
0
.25000
0
.25000
12.75000
.25000
0
0
0
.25000
0
0
.25000
.75000
0
.25000
0
.75000
.75000
.25000
.25000
0
5.25000
1.75000
.25000
6.75000
13.75000
.25000
.25000
0
0
.75000
.25000
22.25000
0
.75000
0
.25000
23.25000
.25000
.75000
.75000
1.25000
0
0
0
0
0
0
1.75000
0
.25000
0
.25000
.25000
0
.25000
.25000
.25000
.25000
0
.75000
.75000
0
.25000
0
.25000
.25000
.25000
2.25000
.25000
0
.25000
0
.75000
.25000
0
2.25000
0
.25000
0
9.25000
.25000
7.25000
.25000
.25000
.75000
.25000
1.25000
.25000
.25000
.25000
.75000
.75000
0
0
.75000
0
.75000
9.25000
0
.25000
1.25000
.75000
.75000
.25000
.25000
0
0
1.25000
.25000
.25000
0
.75000
.75000
1.25000
3.25000
.75000
4.25000
0
.25000
1.75000
0
0
0
0
.25000
0
.25000
27.25000
.25000
0
0
.75000
.25000
0
0
0
.25000
.25000
0
.25000
.75000
.25000
0
9.75000
0
0
0
0
0
.75000
6.25000
0
.25000
0
.25000
.25000
0
1.75000
